ip_pj/blink_leds/src/led_blink.vcd
$date
	Sat Jul 05 17:22:01 2025
$end
$version
	Icarus Verilog
$end
$timescale
	1ps
$end
$scope module tb_top $end
$var reg 1 ! clk $end
$upscope $end
$scope module tb_top $end
$scope module dut $end
$var reg 1 " reg_cnt_1s_flg $end
$upscope $end
$upscope $end
$scope module tb_top $end
$scope module dut $end
$var reg 24 # reg_1s_cnt [23:0] $end
$upscope $end
$upscope $end
$scope module tb_top $end
$scope module dut $end
$var reg 6 $ reg_led_val [5:0] $end
$upscope $end
$upscope $end
$enddefinitions $end
$comment Show the parameter values. $end
$dumpall
$end
#0
$dumpvars
b0 $
b0 #
x"
0!
$end
#18519
0"
b1 #
1!
#37038
0!
#55557
b10 #
1!
#74076
0!
#92595
b11 #
1!
#111114
0!
#129633
b100 #
1!
#148152
0!
#166671
b101 #
1!
#185190
0!
#203709
b110 #
1!
#222228
0!
#240747
b111 #
1!
#259266
0!
#277785
b1000 #
1!
#296304
0!
#314823
b1001 #
1!
#333342
0!
#351861
b1010 #
1!
#370380
0!
#388899
b1011 #
1!
#407418
0!
#425937
b1100 #
1!
#444456
0!
#462975
b1101 #
1!
#481494
0!
#500013
b1110 #
1!
#518532
0!
#537051
b1111 #
1!
#555570
0!
#574089
b10000 #
1!
#592608
0!
#611127
b10001 #
1!
#629646
0!
#648165
b10010 #
1!
#666684
0!
#685203
b10011 #
1!
#703722
0!
#722241
b10100 #
1!
#740760
0!
#759279
b10101 #
1!
#777798
0!
#796317
b10110 #
1!
#814836
0!
#833355
b10111 #
1!
#851874
0!
#870393
b11000 #
1!
#888912
0!
#907431
b11001 #
1!
#925950
0!
#944469
b11010 #
1!
#962988
0!
#981507
b11011 #
1!
#1000026
0!
#1018545
b11100 #
1!
#1037064
0!
#1055583
b11101 #
1!
#1074102
0!
#1092621
b11110 #
1!
#1111140
0!
#1129659
b11111 #
1!
#1148178
0!
#1166697
b100000 #
1!
#1185216
0!
#1203735
b100001 #
1!
#1222254
0!
#1240773
b100010 #
1!
#1259292
0!
#1277811
b100011 #
1!
#1296330
0!
#1314849
b100100 #
1!
#1333368
0!
#1351887
b100101 #
1!
#1370406
0!
#1388925
b100110 #
1!
#1407444
0!
#1425963
b100111 #
1!
#1444482
0!
#1463001
b101000 #
1!
#1481520
0!
#1500039
b101001 #
1!
#1518558
0!
#1537077
b101010 #
1!
#1555596
0!
#1574115
b101011 #
1!
#1592634
0!
#1611153
b101100 #
1!
#1629672
0!
#1648191
b101101 #
1!
#1666710
0!
#1685229
b101110 #
1!
#1703748
0!
#1722267
b101111 #
1!
#1740786
0!
#1759305
b110000 #
1!
#1777824
0!
#1796343
b110001 #
1!
#1814862
0!
#1833381
b110010 #
1!
#1851900
0!
#1870419
b110011 #
1!
#1888938
0!
#1907457
b110100 #
1!
#1925976
0!
#1944495
b110101 #
1!
#1963014
0!
#1981533
b110110 #
1!
#2000052
0!
#2018571
b110111 #
1!
#2037090
0!
#2055609
b111000 #
1!
#2074128
0!
#2092647
b111001 #
1!
#2111166
0!
#2129685
b111010 #
1!
#2148204
0!
#2166723
b111011 #
1!
#2185242
0!
#2203761
b111100 #
1!
#2222280
0!
#2240799
b111101 #
1!
#2259318
0!
#2277837
b111110 #
1!
#2296356
0!
#2314875
b111111 #
1!
#2333394
0!
#2351913
b1000000 #
1!
#2370432
0!
#2388951
b1000001 #
1!
#2407470
0!
#2425989
b1000010 #
1!
#2444508
0!
#2463027
b1000011 #
1!
#2481546
0!
#2500065
b1000100 #
1!
#2518584
0!
#2537103
b1000101 #
1!
#2555622
0!
#2574141
b1000110 #
1!
#2592660
0!
#2611179
b1000111 #
1!
#2629698
0!
#2648217
b1001000 #
1!
#2666736
0!
#2685255
b1001001 #
1!
#2703774
0!
#2722293
b1001010 #
1!
#2740812
0!
#2759331
b1001011 #
1!
#2777850
0!
#2796369
b1001100 #
1!
#2814888
0!
#2833407
b1001101 #
1!
#2851926
0!
#2870445
b1001110 #
1!
#2888964
0!
#2907483
b1001111 #
1!
#2926002
0!
#2944521
b1010000 #
1!
#2963040
0!
#2981559
b1010001 #
1!
#3000078
0!
#3018597
b1010010 #
1!
#3037116
0!
#3055635
b1010011 #
1!
#3074154
0!
#3092673
b1010100 #
1!
#3111192
0!
#3129711
b1010101 #
1!
#3148230
0!
#3166749
b1010110 #
1!
#3185268
0!
#3203787
b1010111 #
1!
#3222306
0!
#3240825
b1011000 #
1!
#3259344
0!
#3277863
b1011001 #
1!
#3296382
0!
#3314901
b1011010 #
1!
#3333420
0!
#3351939
b1011011 #
1!
#3370458
0!
#3388977
b1011100 #
1!
#3407496
0!
#3426015
b1011101 #
1!
#3444534
0!
#3463053
b1011110 #
1!
#3481572
0!
#3500091
b1011111 #
1!
#3518610
0!
#3537129
b1100000 #
1!
#3555648
0!
#3574167
b1100001 #
1!
#3592686
0!
#3611205
b1100010 #
1!
#3629724
0!
#3648243
b1100011 #
1!
#3666762
0!
#3685281
b1100100 #
1!
#3703800
0!
#3722319
b1100101 #
1!
#3740838
0!
#3759357
b1100110 #
1!
#3777876
0!
#3796395
b1100111 #
1!
#3814914
0!
#3833433
b1101000 #
1!
#3851952
0!
#3870471
b1101001 #
1!
#3888990
0!
#3907509
b1101010 #
1!
#3926028
0!
#3944547
b1101011 #
1!
#3963066
0!
#3981585
b1101100 #
1!
#4000104
0!
#4018623
b1101101 #
1!
#4037142
0!
#4055661
b1101110 #
1!
#4074180
0!
#4092699
b1101111 #
1!
#4111218
0!
#4129737
b1110000 #
1!
#4148256
0!
#4166775
b1110001 #
1!
#4185294
0!
#4203813
b1110010 #
1!
#4222332
0!
#4240851
b1110011 #
1!
#4259370
0!
#4277889
b1110100 #
1!
#4296408
0!
#4314927
b1110101 #
1!
#4333446
0!
#4351965
b1110110 #
1!
#4370484
0!
#4389003
b1110111 #
1!
#4407522
0!
#4426041
b1111000 #
1!
#4444560
0!
#4463079
b1111001 #
1!
#4481598
0!
#4500117
b1111010 #
1!
#4518636
0!
#4537155
b1111011 #
1!
#4555674
0!
#4574193
b1111100 #
1!
#4592712
0!
#4611231
b1111101 #
1!
#4629750
0!
#4648269
b1111110 #
1!
#4666788
0!
#4685307
b1111111 #
1!
#4703826
0!
#4722345
b10000000 #
1!
#4740864
0!
#4759383
b10000001 #
1!
#4777902
0!
#4796421
b10000010 #
1!
#4814940
0!
#4833459
b10000011 #
1!
#4851978
0!
#4870497
b10000100 #
1!
#4889016
0!
#4907535
b10000101 #
1!
#4926054
0!
#4944573
b10000110 #
1!
#4963092
0!
#4981611
b10000111 #
1!
#5000130
0!
#5018649
b10001000 #
1!
#5037168
0!
#5055687
b10001001 #
1!
#5074206
0!
#5092725
b10001010 #
1!
#5111244
0!
#5129763
b10001011 #
1!
#5148282
0!
#5166801
b10001100 #
1!
#5185320
0!
#5203839
b10001101 #
1!
#5222358
0!
#5240877
b10001110 #
1!
#5259396
0!
#5277915
b10001111 #
1!
#5296434
0!
#5314953
b10010000 #
1!
#5333472
0!
#5351991
b10010001 #
1!
#5370510
0!
#5389029
b10010010 #
1!
#5407548
0!
#5426067
b10010011 #
1!
#5444586
0!
#5463105
b10010100 #
1!
#5481624
0!
#5500143
b10010101 #
1!
#5518662
0!
#5537181
b10010110 #
1!
#5555700
0!
#5574219
b10010111 #
1!
#5592738
0!
#5611257
b10011000 #
1!
#5629776
0!
#5648295
b10011001 #
1!
#5666814
0!
#5685333
b10011010 #
1!
#5703852
0!
#5722371
b10011011 #
1!
#5740890
0!
#5759409
b10011100 #
1!
#5777928
0!
#5796447
b10011101 #
1!
#5814966
0!
#5833485
b10011110 #
1!
#5852004
0!
#5870523
b10011111 #
1!
#5889042
0!
#5907561
b10100000 #
1!
#5926080
0!
#5944599
b10100001 #
1!
#5963118
0!
#5981637
b10100010 #
1!
#6000156
0!
#6018675
b10100011 #
1!
#6037194
0!
#6055713
b10100100 #
1!
#6074232
0!
#6092751
b10100101 #
1!
#6111270
0!
#6129789
b10100110 #
1!
#6148308
0!
#6166827
b10100111 #
1!
#6185346
0!
#6203865
b10101000 #
1!
#6222384
0!
#6240903
b10101001 #
1!
#6259422
0!
#6277941
b10101010 #
1!
#6296460
0!
#6314979
b10101011 #
1!
#6333498
0!
#6352017
b10101100 #
1!
#6370536
0!
#6389055
b10101101 #
1!
#6407574
0!
#6426093
b10101110 #
1!
#6444612
0!
#6463131
b10101111 #
1!
#6481650
0!
#6500169
b10110000 #
1!
#6518688
0!
#6537207
b10110001 #
1!
#6555726
0!
#6574245
b10110010 #
1!
#6592764
0!
#6611283
b10110011 #
1!
#6629802
0!
#6648321
b10110100 #
1!
#6666840
0!
#6685359
b10110101 #
1!
#6703878
0!
#6722397
b10110110 #
1!
#6740916
0!
#6759435
b10110111 #
1!
#6777954
0!
#6796473
b10111000 #
1!
#6814992
0!
#6833511
b10111001 #
1!
#6852030
0!
#6870549
b10111010 #
1!
#6889068
0!
#6907587
b10111011 #
1!
#6926106
0!
#6944625
b10111100 #
1!
#6963144
0!
#6981663
b10111101 #
1!
#7000182
0!
#7018701
b10111110 #
1!
#7037220
0!
#7055739
b10111111 #
1!
#7074258
0!
#7092777
b11000000 #
1!
#7111296
0!
#7129815
b11000001 #
1!
#7148334
0!
#7166853
b11000010 #
1!
#7185372
0!
#7203891
b11000011 #
1!
#7222410
0!
#7240929
b11000100 #
1!
#7259448
0!
#7277967
b11000101 #
1!
#7296486
0!
#7315005
b11000110 #
1!
#7333524
0!
#7352043
b11000111 #
1!
#7370562
0!
#7389081
b11001000 #
1!
#7407600
0!
#7426119
b11001001 #
1!
#7444638
0!
#7463157
b11001010 #
1!
#7481676
0!
#7500195
b11001011 #
1!
#7518714
0!
#7537233
b11001100 #
1!
#7555752
0!
#7574271
b11001101 #
1!
#7592790
0!
#7611309
b11001110 #
1!
#7629828
0!
#7648347
b11001111 #
1!
#7666866
0!
#7685385
b11010000 #
1!
#7703904
0!
#7722423
b11010001 #
1!
#7740942
0!
#7759461
b11010010 #
1!
#7777980
0!
#7796499
b11010011 #
1!
#7815018
0!
#7833537
b11010100 #
1!
#7852056
0!
#7870575
b11010101 #
1!
#7889094
0!
#7907613
b11010110 #
1!
#7926132
0!
#7944651
b11010111 #
1!
#7963170
0!
#7981689
b11011000 #
1!
#8000208
0!
#8018727
b11011001 #
1!
#8037246
0!
#8055765
b11011010 #
1!
#8074284
0!
#8092803
b11011011 #
1!
#8111322
0!
#8129841
b11011100 #
1!
#8148360
0!
#8166879
b11011101 #
1!
#8185398
0!
#8203917
b11011110 #
1!
#8222436
0!
#8240955
b11011111 #
1!
#8259474
0!
#8277993
b11100000 #
1!
#8296512
0!
#8315031
b11100001 #
1!
#8333550
0!
#8352069
b11100010 #
1!
#8370588
0!
#8389107
b11100011 #
1!
#8407626
0!
#8426145
b11100100 #
1!
#8444664
0!
#8463183
b11100101 #
1!
#8481702
0!
#8500221
b11100110 #
1!
#8518740
0!
#8537259
b11100111 #
1!
#8555778
0!
#8574297
b11101000 #
1!
#8592816
0!
#8611335
b11101001 #
1!
#8629854
0!
#8648373
b11101010 #
1!
#8666892
0!
#8685411
b11101011 #
1!
#8703930
0!
#8722449
b11101100 #
1!
#8740968
0!
#8759487
b11101101 #
1!
#8778006
0!
#8796525
b11101110 #
1!
#8815044
0!
#8833563
b11101111 #
1!
#8852082
0!
#8870601
b11110000 #
1!
#8889120
0!
#8907639
b11110001 #
1!
#8926158
0!
#8944677
b11110010 #
1!
#8963196
0!
#8981715
b11110011 #
1!
#9000234
0!
#9018753
b11110100 #
1!
#9037272
0!
#9055791
b11110101 #
1!
#9074310
0!
#9092829
b11110110 #
1!
#9111348
0!
#9129867
b11110111 #
1!
#9148386
0!
#9166905
b11111000 #
1!
#9185424
0!
#9203943
b11111001 #
1!
#9222462
0!
#9240981
b11111010 #
1!
#9259500
0!
#9278019
b11111011 #
1!
#9296538
0!
#9315057
b11111100 #
1!
#9333576
0!
#9352095
b11111101 #
1!
#9370614
0!
#9389133
b11111110 #
1!
#9407652
0!
#9426171
b11111111 #
1!
#9444690
0!
#9463209
b100000000 #
1!
#9481728
0!
#9500247
b100000001 #
1!
#9518766
0!
#9537285
b100000010 #
1!
#9555804
0!
#9574323
b100000011 #
1!
#9592842
0!
#9611361
b100000100 #
1!
#9629880
0!
#9648399
b100000101 #
1!
#9666918
0!
#9685437
b100000110 #
1!
#9703956
0!
#9722475
b100000111 #
1!
#9740994
0!
#9759513
b100001000 #
1!
#9778032
0!
#9796551
b100001001 #
1!
#9815070
0!
#9833589
b100001010 #
1!
#9852108
0!
#9870627
b100001011 #
1!
#9889146
0!
#9907665
b100001100 #
1!
#9926184
0!
#9944703
b100001101 #
1!
#9963222
0!
#9981741
b100001110 #
1!
#10000260
0!
#10018779
b100001111 #
1!
#10037298
0!
#10055817
b100010000 #
1!
#10074336
0!
#10092855
b100010001 #
1!
#10111374
0!
#10129893
b100010010 #
1!
#10148412
0!
#10166931
b100010011 #
1!
#10185450
0!
#10203969
b100010100 #
1!
#10222488
0!
#10241007
b100010101 #
1!
#10259526
0!
#10278045
b100010110 #
1!
#10296564
0!
#10315083
b100010111 #
1!
#10333602
0!
#10352121
b100011000 #
1!
#10370640
0!
#10389159
b100011001 #
1!
#10407678
0!
#10426197
b100011010 #
1!
#10444716
0!
#10463235
b100011011 #
1!
#10481754
0!
#10500273
b100011100 #
1!
#10518792
0!
#10537311
b100011101 #
1!
#10555830
0!
#10574349
b100011110 #
1!
#10592868
0!
#10611387
b100011111 #
1!
#10629906
0!
#10648425
b100100000 #
1!
#10666944
0!
#10685463
b100100001 #
1!
#10703982
0!
#10722501
b100100010 #
1!
#10741020
0!
#10759539
b100100011 #
1!
#10778058
0!
#10796577
b100100100 #
1!
#10815096
0!
#10833615
b100100101 #
1!
#10852134
0!
#10870653
b100100110 #
1!
#10889172
0!
#10907691
b100100111 #
1!
#10926210
0!
#10944729
b100101000 #
1!
#10963248
0!
#10981767
b100101001 #
1!
#11000286
0!
#11018805
b100101010 #
1!
#11037324
0!
#11055843
b100101011 #
1!
#11074362
0!
#11092881
b100101100 #
1!
#11111400
0!
#11129919
b100101101 #
1!
#11148438
0!
#11166957
b100101110 #
1!
#11185476
0!
#11203995
b100101111 #
1!
#11222514
0!
#11241033
b100110000 #
1!
#11259552
0!
#11278071
b100110001 #
1!
#11296590
0!
#11315109
b100110010 #
1!
#11333628
0!
#11352147
b100110011 #
1!
#11370666
0!
#11389185
b100110100 #
1!
#11407704
0!
#11426223
b100110101 #
1!
#11444742
0!
#11463261
b100110110 #
1!
#11481780
0!
#11500299
b100110111 #
1!
#11518818
0!
#11537337
b100111000 #
1!
#11555856
0!
#11574375
b100111001 #
1!
#11592894
0!
#11611413
b100111010 #
1!
#11629932
0!
#11648451
b100111011 #
1!
#11666970
0!
#11685489
b100111100 #
1!
#11704008
0!
#11722527
b100111101 #
1!
#11741046
0!
#11759565
b100111110 #
1!
#11778084
0!
#11796603
b100111111 #
1!
#11815122
0!
#11833641
b101000000 #
1!
#11852160
0!
#11870679
b101000001 #
1!
#11889198
0!
#11907717
b101000010 #
1!
#11926236
0!
#11944755
b101000011 #
1!
#11963274
0!
#11981793
b101000100 #
1!
#12000312
0!
#12018831
b101000101 #
1!
#12037350
0!
#12055869
b101000110 #
1!
#12074388
0!
#12092907
b101000111 #
1!
#12111426
0!
#12129945
b101001000 #
1!
#12148464
0!
#12166983
b101001001 #
1!
#12185502
0!
#12204021
b101001010 #
1!
#12222540
0!
#12241059
b101001011 #
1!
#12259578
0!
#12278097
b101001100 #
1!
#12296616
0!
#12315135
b101001101 #
1!
#12333654
0!
#12352173
b101001110 #
1!
#12370692
0!
#12389211
b101001111 #
1!
#12407730
0!
#12426249
b101010000 #
1!
#12444768
0!
#12463287
b101010001 #
1!
#12481806
0!
#12500325
b101010010 #
1!
#12518844
0!
#12537363
b101010011 #
1!
#12555882
0!
#12574401
b101010100 #
1!
#12592920
0!
#12611439
b101010101 #
1!
#12629958
0!
#12648477
b101010110 #
1!
#12666996
0!
#12685515
b101010111 #
1!
#12704034
0!
#12722553
b101011000 #
1!
#12741072
0!
#12759591
b101011001 #
1!
#12778110
0!
#12796629
b101011010 #
1!
#12815148
0!
#12833667
b101011011 #
1!
#12852186
0!
#12870705
b101011100 #
1!
#12889224
0!
#12907743
b101011101 #
1!
#12926262
0!
#12944781
b101011110 #
1!
#12963300
0!
#12981819
b101011111 #
1!
#13000338
0!
#13018857
b101100000 #
1!
#13037376
0!
#13055895
b101100001 #
1!
#13074414
0!
#13092933
b101100010 #
1!
#13111452
0!
#13129971
b101100011 #
1!
#13148490
0!
#13167009
b101100100 #
1!
#13185528
0!
#13204047
b101100101 #
1!
#13222566
0!
#13241085
b101100110 #
1!
#13259604
0!
#13278123
b101100111 #
1!
#13296642
0!
#13315161
b101101000 #
1!
#13333680
0!
#13352199
b101101001 #
1!
#13370718
0!
#13389237
b101101010 #
1!
#13407756
0!
#13426275
b101101011 #
1!
#13444794
0!
#13463313
b101101100 #
1!
#13481832
0!
#13500351
b101101101 #
1!
#13518870
0!
#13537389
b101101110 #
1!
#13555908
0!
#13574427
b101101111 #
1!
#13592946
0!
#13611465
b101110000 #
1!
#13629984
0!
#13648503
b101110001 #
1!
#13667022
0!
#13685541
b101110010 #
1!
#13704060
0!
#13722579
b101110011 #
1!
#13741098
0!
#13759617
b101110100 #
1!
#13778136
0!
#13796655
b101110101 #
1!
#13815174
0!
#13833693
b101110110 #
1!
#13852212
0!
#13870731
b101110111 #
1!
#13889250
0!
#13907769
b101111000 #
1!
#13926288
0!
#13944807
b101111001 #
1!
#13963326
0!
#13981845
b101111010 #
1!
#14000364
0!
#14018883
b101111011 #
1!
#14037402
0!
#14055921
b101111100 #
1!
#14074440
0!
#14092959
b101111101 #
1!
#14111478
0!
#14129997
b101111110 #
1!
#14148516
0!
#14167035
b101111111 #
1!
#14185554
0!
#14204073
b110000000 #
1!
#14222592
0!
#14241111
b110000001 #
1!
#14259630
0!
#14278149
b110000010 #
1!
#14296668
0!
#14315187
b110000011 #
1!
#14333706
0!
#14352225
b110000100 #
1!
#14370744
0!
#14389263
b110000101 #
1!
#14407782
0!
#14426301
b110000110 #
1!
#14444820
0!
#14463339
b110000111 #
1!
#14481858
0!
#14500377
b110001000 #
1!
#14518896
0!
#14537415
b110001001 #
1!
#14555934
0!
#14574453
b110001010 #
1!
#14592972
0!
#14611491
b110001011 #
1!
#14630010
0!
#14648529
b110001100 #
1!
#14667048
0!
#14685567
b110001101 #
1!
#14704086
0!
#14722605
b110001110 #
1!
#14741124
0!
#14759643
b110001111 #
1!
#14778162
0!
#14796681
b110010000 #
1!
#14815200
0!
#14833719
b110010001 #
1!
#14852238
0!
#14870757
b110010010 #
1!
#14889276
0!
#14907795
b110010011 #
1!
#14926314
0!
#14944833
b110010100 #
1!
#14963352
0!
#14981871
b110010101 #
1!
#15000390
0!
#15018909
b110010110 #
1!
#15037428
0!
#15055947
b110010111 #
1!
#15074466
0!
#15092985
b110011000 #
1!
#15111504
0!
#15130023
b110011001 #
1!
#15148542
0!
#15167061
b110011010 #
1!
#15185580
0!
#15204099
b110011011 #
1!
#15222618
0!
#15241137
b110011100 #
1!
#15259656
0!
#15278175
b110011101 #
1!
#15296694
0!
#15315213
b110011110 #
1!
#15333732
0!
#15352251
b110011111 #
1!
#15370770
0!
#15389289
b110100000 #
1!
#15407808
0!
#15426327
b110100001 #
1!
#15444846
0!
#15463365
b110100010 #
1!
#15481884
0!
#15500403
b110100011 #
1!
#15518922
0!
#15537441
b110100100 #
1!
#15555960
0!
#15574479
b110100101 #
1!
#15592998
0!
#15611517
b110100110 #
1!
#15630036
0!
#15648555
b110100111 #
1!
#15667074
0!
#15685593
b110101000 #
1!
#15704112
0!
#15722631
b110101001 #
1!
#15741150
0!
#15759669
b110101010 #
1!
#15778188
0!
#15796707
b110101011 #
1!
#15815226
0!
#15833745
b110101100 #
1!
#15852264
0!
#15870783
b110101101 #
1!
#15889302
0!
#15907821
b110101110 #
1!
#15926340
0!
#15944859
b110101111 #
1!
#15963378
0!
#15981897
b110110000 #
1!
#16000416
0!
#16018935
b110110001 #
1!
#16037454
0!
#16055973
b110110010 #
1!
#16074492
0!
#16093011
b110110011 #
1!
#16111530
0!
#16130049
b110110100 #
1!
#16148568
0!
#16167087
b110110101 #
1!
#16185606
0!
#16204125
b110110110 #
1!
#16222644
0!
#16241163
b110110111 #
1!
#16259682
0!
#16278201
b110111000 #
1!
#16296720
0!
#16315239
b110111001 #
1!
#16333758
0!
#16352277
b110111010 #
1!
#16370796
0!
#16389315
b110111011 #
1!
#16407834
0!
#16426353
b110111100 #
1!
#16444872
0!
#16463391
b110111101 #
1!
#16481910
0!
#16500429
b110111110 #
1!
#16518948
0!
#16537467
b110111111 #
1!
#16555986
0!
#16574505
b111000000 #
1!
#16593024
0!
#16611543
b111000001 #
1!
#16630062
0!
#16648581
b111000010 #
1!
#16667100
0!
#16685619
b111000011 #
1!
#16704138
0!
#16722657
b111000100 #
1!
#16741176
0!
#16759695
b111000101 #
1!
#16778214
0!
#16796733
b111000110 #
1!
#16815252
0!
#16833771
b111000111 #
1!
#16852290
0!
#16870809
b111001000 #
1!
#16889328
0!
#16907847
b111001001 #
1!
#16926366
0!
#16944885
b111001010 #
1!
#16963404
0!
#16981923
b111001011 #
1!
#17000442
0!
#17018961
b111001100 #
1!
#17037480
0!
#17055999
b111001101 #
1!
#17074518
0!
#17093037
b111001110 #
1!
#17111556
0!
#17130075
b111001111 #
1!
#17148594
0!
#17167113
b111010000 #
1!
#17185632
0!
#17204151
b111010001 #
1!
#17222670
0!
#17241189
b111010010 #
1!
#17259708
0!
#17278227
b111010011 #
1!
#17296746
0!
#17315265
b111010100 #
1!
#17333784
0!
#17352303
b111010101 #
1!
#17370822
0!
#17389341
b111010110 #
1!
#17407860
0!
#17426379
b111010111 #
1!
#17444898
0!
#17463417
b111011000 #
1!
#17481936
0!
#17500455
b111011001 #
1!
#17518974
0!
#17537493
b111011010 #
1!
#17556012
0!
#17574531
b111011011 #
1!
#17593050
0!
#17611569
b111011100 #
1!
#17630088
0!
#17648607
b111011101 #
1!
#17667126
0!
#17685645
b111011110 #
1!
#17704164
0!
#17722683
b111011111 #
1!
#17741202
0!
#17759721
b111100000 #
1!
#17778240
0!
#17796759
b111100001 #
1!
#17815278
0!
#17833797
b111100010 #
1!
#17852316
0!
#17870835
b111100011 #
1!
#17889354
0!
#17907873
b111100100 #
1!
#17926392
0!
#17944911
b111100101 #
1!
#17963430
0!
#17981949
b111100110 #
1!
#18000468
0!
#18018987
b111100111 #
1!
#18037506
0!
#18056025
b111101000 #
1!
#18074544
0!
#18093063
b111101001 #
1!
#18111582
0!
#18130101
b111101010 #
1!
#18148620
0!
#18167139
b111101011 #
1!
#18185658
0!
#18204177
b111101100 #
1!
#18222696
0!
#18241215
b111101101 #
1!
#18259734
0!
#18278253
b111101110 #
1!
#18296772
0!
#18315291
b111101111 #
1!
#18333810
0!
#18352329
b111110000 #
1!
#18370848
0!
#18389367
b111110001 #
1!
#18407886
0!
#18426405
b111110010 #
1!
#18444924
0!
#18463443
b111110011 #
1!
#18481962
0!
#18500481
b111110100 #
1!
#18519000
0!
#18537519
1"
b0 #
1!
#18556038
0!
#18574557
b111111 $
0"
b1 #
1!
#18593076
0!
#18611595
b10 #
1!
#18630114
0!
#18648633
b11 #
1!
#18667152
0!
#18685671
b100 #
1!
#18704190
0!
#18722709
b101 #
1!
#18741228
0!
#18759747
b110 #
1!
#18778266
0!
#18796785
b111 #
1!
#18815304
0!
#18833823
b1000 #
1!
#18852342
0!
#18870861
b1001 #
1!
#18889380
0!
#18907899
b1010 #
1!
#18926418
0!
#18944937
b1011 #
1!
#18963456
0!
#18981975
b1100 #
1!
#19000494
0!
#19019013
b1101 #
1!
#19037532
0!
#19056051
b1110 #
1!
#19074570
0!
#19093089
b1111 #
1!
#19111608
0!
#19130127
b10000 #
1!
#19148646
0!
#19167165
b10001 #
1!
#19185684
0!
#19204203
b10010 #
1!
#19222722
0!
#19241241
b10011 #
1!
#19259760
0!
#19278279
b10100 #
1!
#19296798
0!
#19315317
b10101 #
1!
#19333836
0!
#19352355
b10110 #
1!
#19370874
0!
#19389393
b10111 #
1!
#19407912
0!
#19426431
b11000 #
1!
#19444950
0!
#19463469
b11001 #
1!
#19481988
0!
#19500507
b11010 #
1!
#19519026
0!
#19537545
b11011 #
1!
#19556064
0!
#19574583
b11100 #
1!
#19593102
0!
#19611621
b11101 #
1!
#19630140
0!
#19648659
b11110 #
1!
#19667178
0!
#19685697
b11111 #
1!
#19704216
0!
#19722735
b100000 #
1!
#19741254
0!
#19759773
b100001 #
1!
#19778292
0!
#19796811
b100010 #
1!
#19815330
0!
#19833849
b100011 #
1!
#19852368
0!
#19870887
b100100 #
1!
#19889406
0!
#19907925
b100101 #
1!
#19926444
0!
#19944963
b100110 #
1!
#19963482
0!
#19982001
b100111 #
1!
#20000520
0!
#20019039
b101000 #
1!
#20037558
0!
#20056077
b101001 #
1!
#20074596
0!
#20093115
b101010 #
1!
#20111634
0!
#20130153
b101011 #
1!
#20148672
0!
#20167191
b101100 #
1!
#20185710
0!
#20204229
b101101 #
1!
#20222748
0!
#20241267
b101110 #
1!
#20259786
0!
#20278305
b101111 #
1!
#20296824
0!
#20315343
b110000 #
1!
#20333862
0!
#20352381
b110001 #
1!
#20370900
0!
#20389419
b110010 #
1!
#20407938
0!
#20426457
b110011 #
1!
#20444976
0!
#20463495
b110100 #
1!
#20482014
0!
#20500533
b110101 #
1!
#20519052
0!
#20537571
b110110 #
1!
#20556090
0!
#20574609
b110111 #
1!
#20593128
0!
#20611647
b111000 #
1!
#20630166
0!
#20648685
b111001 #
1!
#20667204
0!
#20685723
b111010 #
1!
#20704242
0!
#20722761
b111011 #
1!
#20741280
0!
#20759799
b111100 #
1!
#20778318
0!
#20796837
b111101 #
1!
#20815356
0!
#20833875
b111110 #
1!
#20852394
0!
#20870913
b111111 #
1!
#20889432
0!
#20907951
b1000000 #
1!
#20926470
0!
#20944989
b1000001 #
1!
#20963508
0!
#20982027
b1000010 #
1!
#21000546
0!
#21019065
b1000011 #
1!
#21037584
0!
#21056103
b1000100 #
1!
#21074622
0!
#21093141
b1000101 #
1!
#21111660
0!
#21130179
b1000110 #
1!
#21148698
0!
#21167217
b1000111 #
1!
#21185736
0!
#21204255
b1001000 #
1!
#21222774
0!
#21241293
b1001001 #
1!
#21259812
0!
#21278331
b1001010 #
1!
#21296850
0!
#21315369
b1001011 #
1!
#21333888
0!
#21352407
b1001100 #
1!
#21370926
0!
#21389445
b1001101 #
1!
#21407964
0!
#21426483
b1001110 #
1!
#21445002
0!
#21463521
b1001111 #
1!
#21482040
0!
#21500559
b1010000 #
1!
#21519078
0!
#21537597
b1010001 #
1!
#21556116
0!
#21574635
b1010010 #
1!
#21593154
0!
#21611673
b1010011 #
1!
#21630192
0!
#21648711
b1010100 #
1!
#21667230
0!
#21685749
b1010101 #
1!
#21704268
0!
#21722787
b1010110 #
1!
#21741306
0!
#21759825
b1010111 #
1!
#21778344
0!
#21796863
b1011000 #
1!
#21815382
0!
#21833901
b1011001 #
1!
#21852420
0!
#21870939
b1011010 #
1!
#21889458
0!
#21907977
b1011011 #
1!
#21926496
0!
#21945015
b1011100 #
1!
#21963534
0!
#21982053
b1011101 #
1!
#22000572
0!
#22019091
b1011110 #
1!
#22037610
0!
#22056129
b1011111 #
1!
#22074648
0!
#22093167
b1100000 #
1!
#22111686
0!
#22130205
b1100001 #
1!
#22148724
0!
#22167243
b1100010 #
1!
#22185762
0!
#22204281
b1100011 #
1!
#22222800
0!
#22241319
b1100100 #
1!
#22259838
0!
#22278357
b1100101 #
1!
#22296876
0!
#22315395
b1100110 #
1!
#22333914
0!
#22352433
b1100111 #
1!
#22370952
0!
#22389471
b1101000 #
1!
#22407990
0!
#22426509
b1101001 #
1!
#22445028
0!
#22463547
b1101010 #
1!
#22482066
0!
#22500585
b1101011 #
1!
#22519104
0!
#22537623
b1101100 #
1!
#22556142
0!
#22574661
b1101101 #
1!
#22593180
0!
#22611699
b1101110 #
1!
#22630218
0!
#22648737
b1101111 #
1!
#22667256
0!
#22685775
b1110000 #
1!
#22704294
0!
#22722813
b1110001 #
1!
#22741332
0!
#22759851
b1110010 #
1!
#22778370
0!
#22796889
b1110011 #
1!
#22815408
0!
#22833927
b1110100 #
1!
#22852446
0!
#22870965
b1110101 #
1!
#22889484
0!
#22908003
b1110110 #
1!
#22926522
0!
#22945041
b1110111 #
1!
#22963560
0!
#22982079
b1111000 #
1!
#23000598
0!
#23019117
b1111001 #
1!
#23037636
0!
#23056155
b1111010 #
1!
#23074674
0!
#23093193
b1111011 #
1!
#23111712
0!
#23130231
b1111100 #
1!
#23148750
0!
#23167269
b1111101 #
1!
#23185788
0!
#23204307
b1111110 #
1!
#23222826
0!
#23241345
b1111111 #
1!
#23259864
0!
#23278383
b10000000 #
1!
#23296902
0!
#23315421
b10000001 #
1!
#23333940
0!
#23352459
b10000010 #
1!
#23370978
0!
#23389497
b10000011 #
1!
#23408016
0!
#23426535
b10000100 #
1!
#23445054
0!
#23463573
b10000101 #
1!
#23482092
0!
#23500611
b10000110 #
1!
#23519130
0!
#23537649
b10000111 #
1!
#23556168
0!
#23574687
b10001000 #
1!
#23593206
0!
#23611725
b10001001 #
1!
#23630244
0!
#23648763
b10001010 #
1!
#23667282
0!
#23685801
b10001011 #
1!
#23704320
0!
#23722839
b10001100 #
1!
#23741358
0!
#23759877
b10001101 #
1!
#23778396
0!
#23796915
b10001110 #
1!
#23815434
0!
#23833953
b10001111 #
1!
#23852472
0!
#23870991
b10010000 #
1!
#23889510
0!
